<?xml version="1.0" encoding="utf-8"?>
<!-- Generator: Adobe Illustrator 23.0.1, SVG Export Plug-In . SVG Version: 6.00 Build 0)  -->
<svg version="1.1" id="Layer_1" xmlns="http://www.w3.org/2000/svg" xmlns:xlink="http://www.w3.org/1999/xlink" x="0px" y="0px"
	 width="188px" height="45px" viewBox="0 0 188 45" style="enable-background:new 0 0 188 45;" xml:space="preserve">
<style type="text/css">
	.st0{enable-background:new    ;}
	.st1{fill:#003E7E;}
</style>
<g class="st0">
	<path class="st1" d="M15.9,0.3L10,11.6v5.6H5.9v-5.6L0,0.3h4.7L8,7.2l3.3-6.9H15.9z"/>
	<path class="st1" d="M29.9,1.1c1.3,0.7,2.3,1.8,3.1,3.1c0.8,1.3,1.1,2.8,1.1,4.5s-0.4,3.2-1.1,4.5c-0.8,1.3-1.8,2.4-3.1,3.1
		c-1.3,0.7-2.7,1.1-4.3,1.1s-3-0.4-4.3-1.1c-1.3-0.7-2.3-1.8-3.1-3.1S17,10.4,17,8.7s0.4-3.2,1.1-4.5c0.8-1.3,1.8-2.4,3.1-3.1
		C22.5,0.4,24,0,25.5,0C27.1,0,28.6,0.4,29.9,1.1z M22.3,5.1c-0.8,0.9-1.2,2.1-1.2,3.6c0,1.5,0.4,2.7,1.2,3.6s1.9,1.3,3.2,1.3
		c1.3,0,2.4-0.4,3.2-1.3c0.8-0.9,1.2-2.1,1.2-3.6S29.5,6,28.7,5.1s-1.9-1.3-3.2-1.3C24.2,3.8,23.1,4.3,22.3,5.1z"/>
	<path class="st1" d="M40.4,0.3v9.8c0,1.1,0.3,2,0.8,2.6c0.5,0.6,1.2,0.9,2.2,0.9s1.7-0.3,2.2-0.9c0.5-0.6,0.8-1.4,0.8-2.6V0.3h4.1
		v9.8c0,1.6-0.3,2.9-0.9,4S48,16,46.9,16.6s-2.3,0.8-3.7,0.8s-2.6-0.3-3.6-0.8c-1-0.5-1.9-1.4-2.4-2.5c-0.6-1.1-0.9-2.5-0.9-4.1V0.3
		H40.4z"/>
	<path class="st1" d="M61.8,17.2l-3.7-6.4h-0.9v6.4h-4.1v-17h7c1.3,0,2.5,0.2,3.4,0.7c0.9,0.5,1.6,1.1,2.1,1.9
		c0.5,0.8,0.7,1.7,0.7,2.8c0,1.2-0.3,2.3-1,3.1c-0.7,0.9-1.7,1.5-3,1.8l4,6.7H61.8z M57.2,8h2.5c0.8,0,1.4-0.2,1.8-0.5
		c0.4-0.4,0.6-0.9,0.6-1.6c0-0.7-0.2-1.2-0.6-1.6c-0.4-0.4-1-0.6-1.8-0.6h-2.5V8z"/>
	<path class="st1" d="M77.3,3.5v3.6H83v3.1h-5.7v3.8h6.5v3.3H73.2v-17h10.6v3.3H77.3z"/>
	<path class="st1" d="M96.4,17.2L92.8,12l-3.1,5.3H85l5.4-8.7l-5.6-8.2h4.9l3.5,5.1l3-5.1h4.7l-5.4,8.5l5.7,8.4H96.4z"/>
	<path class="st1" d="M106.9,11.3v6h-4.1v-17h6.6c2,0,3.6,0.5,4.6,1.5s1.6,2.3,1.6,4c0,1.1-0.2,2-0.7,2.8c-0.5,0.8-1.2,1.5-2.1,1.9
		c-0.9,0.5-2.1,0.7-3.4,0.7H106.9z M111.5,5.8c0-1.5-0.8-2.2-2.5-2.2h-2.1V8h2.1C110.7,8,111.5,7.3,111.5,5.8z"/>
	<path class="st1" d="M121.8,3.5v3.6h5.7v3.1h-5.7v3.8h6.5v3.3h-10.6v-17h10.6v3.3H121.8z"/>
	<path class="st1" d="M139.3,17.2l-3.7-6.4h-0.9v6.4h-4.1v-17h7c1.3,0,2.5,0.2,3.4,0.7c0.9,0.5,1.6,1.1,2.1,1.9
		c0.5,0.8,0.7,1.7,0.7,2.8c0,1.2-0.3,2.3-1,3.1c-0.7,0.9-1.7,1.5-3,1.8l4,6.7H139.3z M134.7,8h2.5c0.8,0,1.4-0.2,1.8-0.5
		c0.4-0.4,0.6-0.9,0.6-1.6c0-0.7-0.2-1.2-0.6-1.6c-0.4-0.4-1-0.6-1.8-0.6h-2.5V8z"/>
	<path class="st1" d="M158,0.3v3.3h-4.6v13.7h-4.1V3.5h-4.6V0.3H158z"/>
	<path class="st1" d="M168.7,0.3v17h-4.1v-17H168.7z"/>
	<path class="st1" d="M186.6,17.2h-4.1l-6.9-10.4v10.4h-4.1v-17h4.1l6.9,10.5V0.3h4.1V17.2z"/>
</g>
<g class="st0">
	<path class="st1" d="M15.4,40.1c-0.7,1.3-1.7,2.3-3.1,3s-2.9,1.1-4.7,1.1H1.2v-17h6.4c1.8,0,3.4,0.4,4.7,1.1s2.3,1.7,3.1,3
		s1.1,2.8,1.1,4.4S16.1,38.9,15.4,40.1z M11,39.3c0.9-0.8,1.3-2,1.3-3.6c0-1.5-0.4-2.7-1.3-3.6c-0.9-0.8-2.1-1.3-3.7-1.3H5.3v9.7
		h1.9C8.9,40.6,10.1,40.1,11,39.3z"/>
	<path class="st1" d="M22.9,30.5v3.6h5.7v3.1h-5.7v3.8h6.5v3.3H18.8v-17h10.6v3.3H22.9z"/>
	<path class="st1" d="M40.4,44.2l-3.7-6.4h-0.9v6.4h-4.1v-17h7c1.3,0,2.5,0.2,3.4,0.7c0.9,0.5,1.6,1.1,2.1,1.9
		c0.5,0.8,0.7,1.7,0.7,2.8c0,1.2-0.3,2.3-1,3.1c-0.7,0.9-1.7,1.5-3,1.8l4,6.7H40.4z M35.8,35h2.5c0.8,0,1.4-0.2,1.8-0.5
		c0.4-0.4,0.6-0.9,0.6-1.6c0-0.7-0.2-1.2-0.6-1.6c-0.4-0.4-1-0.6-1.8-0.6h-2.5V35z"/>
	<path class="st1" d="M51.1,27.3v17H47v-17H51.1z"/>
	<path class="st1" d="M57.1,27.3L61.2,40l4.2-12.8h4.4l-5.9,17h-5.3l-5.9-17H57.1z"/>
	<path class="st1" d="M81.9,41.1h-6.4l-1.1,3.1h-4.3l6.2-16.8h4.7l6.2,16.8h-4.4L81.9,41.1z M80.8,38l-2.1-6.2L76.6,38H80.8z"/>
	<path class="st1" d="M101.1,27.3v3.3h-4.6v13.7h-4.1V30.5h-4.6v-3.3H101.1z"/>
	<path class="st1" d="M106.9,27.3v17h-4.1v-17H106.9z"/>
	<path class="st1" d="M112.9,27.3L117,40l4.2-12.8h4.4l-5.9,17h-5.3l-5.9-17H112.9z"/>
	<path class="st1" d="M131.3,30.5v3.6h5.7v3.1h-5.7v3.8h6.5v3.3h-10.6v-17h10.6v3.3H131.3z"/>
	<path class="st1" d="M151.6,41.9c-0.5,0.8-1.1,1.4-2,1.8s-2,0.7-3.2,0.7c-1.9,0-3.5-0.5-4.7-1.4s-1.9-2.2-2-3.9h4.4
		c0.1,0.6,0.3,1.1,0.7,1.5c0.4,0.4,0.9,0.6,1.5,0.6c0.5,0,0.9-0.1,1.2-0.4c0.3-0.3,0.5-0.7,0.5-1.2c0-0.4-0.1-0.8-0.4-1.1
		s-0.6-0.5-1-0.7s-1-0.4-1.7-0.7c-1.1-0.4-1.9-0.7-2.6-1.1c-0.7-0.3-1.3-0.9-1.8-1.5c-0.5-0.7-0.7-1.6-0.7-2.7c0-1,0.3-1.9,0.8-2.6
		c0.5-0.7,1.2-1.3,2.1-1.7c0.9-0.4,1.9-0.6,3.1-0.6c1.9,0,3.4,0.4,4.5,1.3c1.1,0.9,1.7,2.1,1.9,3.7h-4.4c-0.1-0.6-0.3-1-0.6-1.3
		c-0.3-0.3-0.8-0.5-1.3-0.5c-0.5,0-0.9,0.1-1.2,0.4s-0.4,0.6-0.4,1.1c0,0.4,0.1,0.7,0.4,1c0.3,0.3,0.6,0.5,1,0.7
		c0.4,0.2,1,0.4,1.7,0.7c1.1,0.4,2,0.7,2.7,1.1s1.3,0.9,1.8,1.6c0.5,0.7,0.7,1.6,0.7,2.7C152.3,40.4,152,41.2,151.6,41.9z"/>
	<path class="st1" d="M158.1,40.1v4.1h-4.2v-4.1H158.1z"/>
</g>
</svg>
