<?xml version="1.0" encoding="utf-8"?>
<!-- Generator: Adobe Illustrator 23.0.1, SVG Export Plug-In . SVG Version: 6.00 Build 0)  -->
<svg version="1.1" id="_x34_" xmlns="http://www.w3.org/2000/svg" xmlns:xlink="http://www.w3.org/1999/xlink" x="0px" y="0px"
	 width="160px" height="96px" viewBox="0 0 160 96" style="enable-background:new 0 0 160 96;" xml:space="preserve">
<style type="text/css">
	.st0{fill:#003E7E;}
</style>
<g>
	<path class="st0" d="M21.4,23l-4.2,8v4h-2.9v-4l-4.2-8h3.3l2.3,4.9l2.3-4.9H21.4z"/>
	<path class="st0" d="M31.3,23.6c0.9,0.5,1.7,1.3,2.2,2.2c0.5,0.9,0.8,2,0.8,3.2s-0.3,2.2-0.8,3.2c-0.5,0.9-1.3,1.7-2.2,2.2
		c-0.9,0.5-1.9,0.8-3.1,0.8s-2.1-0.3-3.1-0.8c-0.9-0.5-1.7-1.3-2.2-2.2c-0.5-0.9-0.8-2-0.8-3.2s0.3-2.2,0.8-3.2
		c0.5-0.9,1.3-1.7,2.2-2.2c0.9-0.5,1.9-0.8,3.1-0.8C29.4,22.8,30.4,23.1,31.3,23.6z M26,26.4c-0.6,0.6-0.8,1.5-0.8,2.5
		c0,1.1,0.3,1.9,0.8,2.5c0.6,0.6,1.3,0.9,2.3,0.9c0.9,0,1.7-0.3,2.3-0.9c0.6-0.6,0.9-1.5,0.9-2.5c0-1.1-0.3-1.9-0.8-2.5
		c-0.6-0.6-1.3-0.9-2.3-0.9C27.3,25.5,26.5,25.8,26,26.4z"/>
	<path class="st0" d="M38.7,23v6.9c0,0.8,0.2,1.4,0.5,1.8c0.4,0.4,0.9,0.6,1.6,0.6s1.2-0.2,1.6-0.6c0.4-0.4,0.5-1,0.5-1.8V23h2.9
		v6.9c0,1.1-0.2,2.1-0.7,2.9s-1,1.4-1.8,1.8c-0.8,0.4-1.6,0.6-2.6,0.6c-1,0-1.8-0.2-2.6-0.6c-0.7-0.4-1.3-1-1.7-1.8
		s-0.6-1.7-0.6-2.9V23H38.7z"/>
	<path class="st0" d="M53.9,35l-2.6-4.5h-0.7V35h-2.9V23h5c1,0,1.8,0.2,2.4,0.5c0.7,0.3,1.2,0.8,1.5,1.4s0.5,1.2,0.5,2
		c0,0.9-0.2,1.6-0.7,2.2c-0.5,0.6-1.2,1-2.1,1.3l2.9,4.7H53.9z M50.7,28.5h1.8c0.6,0,1-0.1,1.3-0.4s0.4-0.6,0.4-1.1
		c0-0.5-0.1-0.8-0.4-1.1c-0.3-0.3-0.7-0.4-1.3-0.4h-1.8V28.5z"/>
	<path class="st0" d="M70.1,33.4c-0.3,0.5-0.8,1-1.4,1.3c-0.6,0.3-1.4,0.5-2.3,0.5c-1.3,0-2.5-0.3-3.3-1s-1.3-1.6-1.4-2.8h3.1
		c0,0.5,0.2,0.8,0.5,1.1s0.6,0.4,1.1,0.4c0.4,0,0.7-0.1,0.9-0.3c0.2-0.2,0.3-0.5,0.3-0.8c0-0.3-0.1-0.6-0.3-0.8s-0.4-0.4-0.7-0.5
		c-0.3-0.1-0.7-0.3-1.2-0.5c-0.8-0.3-1.4-0.5-1.9-0.8c-0.5-0.2-0.9-0.6-1.2-1.1s-0.5-1.1-0.5-1.9c0-0.7,0.2-1.3,0.5-1.9
		s0.9-0.9,1.5-1.2c0.6-0.3,1.4-0.4,2.2-0.4c1.3,0,2.4,0.3,3.2,1s1.2,1.5,1.3,2.6h-3.1c-0.1-0.4-0.2-0.7-0.4-0.9s-0.5-0.3-0.9-0.3
		c-0.3,0-0.6,0.1-0.8,0.3c-0.2,0.2-0.3,0.4-0.3,0.8c0,0.3,0.1,0.5,0.3,0.7s0.4,0.4,0.7,0.5c0.3,0.1,0.7,0.3,1.2,0.5
		c0.8,0.3,1.4,0.5,1.9,0.8s0.9,0.6,1.3,1.1c0.4,0.5,0.5,1.1,0.5,1.9C70.6,32.3,70.5,32.8,70.1,33.4z"/>
	<path class="st0" d="M88.6,23l-2.9,12h-3.6l-1.9-8l-1.9,8h-3.6l-2.9-12h3.2l1.5,8.7l2.1-8.7h3.2l2.1,8.7l1.6-8.7H88.6z"/>
	<path class="st0" d="M97.5,32.8H93L92.3,35h-3.1l4.4-11.9H97l4.4,11.9h-3.1L97.5,32.8z M96.8,30.6l-1.5-4.4l-1.5,4.4H96.8z"/>
	<path class="st0" d="M105.4,30.8V35h-2.9V23h4.7c1.4,0,2.5,0.4,3.3,1.1c0.7,0.7,1.1,1.7,1.1,2.9c0,0.7-0.2,1.4-0.5,2
		c-0.3,0.6-0.8,1-1.5,1.4c-0.7,0.3-1.5,0.5-2.4,0.5H105.4z M108.6,26.9c0-1.1-0.6-1.6-1.8-1.6h-1.5v3.1h1.5
		C108.1,28.5,108.6,27.9,108.6,26.9z"/>
	<path class="st0" d="M115.5,32.1V35h-3v-2.9H115.5z"/>
</g>
</svg>
