<?xml version="1.0" encoding="utf-8"?>
<!-- Generator: Adobe Illustrator 23.0.1, SVG Export Plug-In . SVG Version: 6.00 Build 0)  -->
<svg version="1.1" xmlns="http://www.w3.org/2000/svg" xmlns:xlink="http://www.w3.org/1999/xlink" x="0px" y="0px" width="480.3px"
	 height="90px" viewBox="0 0 480.3 90" style="enable-background:new 0 0 480.3 90;" xml:space="preserve">
<style type="text/css">
	.st0{enable-background:new    ;}
	.st1{fill:#00B6DE;}
	.st2{fill:#FFFFFF;}
</style>
<g id="Layer_1">
	<g class="st0">
		<path class="st1" d="M13.7,41.3c-4,0-7.2-3-7.2-7.2S9.7,27,13.7,27s7.2,3,7.2,7.2S17.6,41.3,13.7,41.3z M13.7,38.2
			c2.2,0,3.7-1.6,3.7-4.1S15.9,30,13.7,30c-2.3,0-3.7,1.6-3.7,4.1S11.4,38.2,13.7,38.2z M35.2,27.3v13.9h-3.4l-5.7-8.7v8.7h-3.4
			V27.3h3.4l5.7,8.7v-8.7C31.8,27.3,35.2,27.3,35.2,27.3z M46,30h-5.2v2.8h4.6v2.6h-4.6v3.1H46v2.8h-8.6v-14H46V30z M57.3,41.3
			c-3,0-5.4-1.5-5.5-4.3h3.6c0.1,1.1,0.8,1.6,1.7,1.6c1,0,1.6-0.5,1.6-1.3c0-2.6-7-1.2-7-6.2c0-2.7,2.2-4.1,5.1-4.1
			c3.1,0,5.1,1.5,5.3,4.2h-3.7c-0.1-0.9-0.7-1.4-1.6-1.5c-0.8,0-1.4,0.4-1.4,1.3c0,2.4,6.9,1.3,6.9,6C62.4,39.4,60.6,41.3,57.3,41.3
			z M63.6,27.3h10.8V30h-3.7v11.2h-3.4V30h-3.7C63.6,30,63.6,27.3,63.6,27.3z M82.7,41.3c-4,0-7.2-3-7.2-7.2s3.2-7.2,7.2-7.2
			s7.2,3,7.2,7.2S86.6,41.3,82.7,41.3z M82.7,38.2c2.2,0,3.7-1.6,3.7-4.1S84.9,30,82.7,30c-2.3,0-3.7,1.6-3.7,4.1
			C78.9,36.7,80.4,38.2,82.7,38.2z M97.2,36.3h-2.1v5h-3.4v-14h5.5c3.4,0,5.2,1.9,5.2,4.5C102.2,34.1,100.7,36.3,97.2,36.3z
			 M96.9,33.5c1.4,0,1.9-0.7,1.9-1.8s-0.6-1.8-1.9-1.8h-1.8v3.5L96.9,33.5z M105.5,41.4c-1.2,0-2-0.8-2-1.8c0-1.1,0.8-1.9,2-1.9
			s2,0.8,2,1.9C107.5,40.5,106.7,41.4,105.5,41.4z"/>
	</g>
</g>
<g id="Layer_2">
	<g class="st0">
		<path class="st2" d="M14.3,63.7h-3.4v-4.5L6,49.7h3.9l2.7,6.3l2.7-6.3h3.9l-4.9,9.5V63.7z"/>
		<path class="st2" d="M21.8,61.8c-1.4-1.4-2.1-3.1-2.1-5.2c0-2.1,0.7-3.8,2.1-5.2s3.1-2,5.1-2s3.7,0.7,5.1,2
			c1.4,1.4,2.1,3.1,2.1,5.2c0,2.1-0.7,3.8-2.1,5.2c-1.4,1.4-3.1,2-5.1,2C24.8,63.9,23.1,63.2,21.8,61.8z M29.5,59.6
			c0.7-0.7,1-1.7,1-2.9s-0.3-2.2-1-2.9s-1.6-1.1-2.7-1.1c-1.1,0-2,0.4-2.7,1.1c-0.7,0.7-1,1.7-1,2.9s0.3,2.2,1,2.9
			c0.7,0.7,1.6,1.1,2.7,1.1C28,60.7,28.9,60.4,29.5,59.6z"/>
		<path class="st2" d="M35.7,58.1v-8.4h3.4v8.4c0,0.8,0.2,1.5,0.6,1.9s1,0.7,1.8,0.7c0.8,0,1.4-0.2,1.8-0.7s0.6-1.1,0.6-1.9v-8.4
			h3.4v8.4c0,1.2-0.3,2.3-0.9,3.2c-0.6,0.9-1.3,1.6-2.2,2c-0.9,0.4-1.8,0.6-2.9,0.6c-1.6,0-3-0.5-4.1-1.5
			C36.3,61.3,35.7,59.9,35.7,58.1z"/>
		<path class="st2" d="M53.4,58.3v5.5h-3.4v-14h5.5c1.6,0,2.9,0.4,3.8,1.3c0.9,0.8,1.4,1.9,1.4,3c0,0.8-0.2,1.6-0.7,2.4
			c-0.5,0.8-1.3,1.3-2.4,1.6l3.4,5.7h-4l-3.2-5.5H53.4z M53.4,52.3v3.4h2.1c0.5,0,0.9-0.2,1.2-0.5s0.5-0.7,0.5-1.2s-0.2-0.9-0.5-1.2
			s-0.7-0.5-1.2-0.5H53.4z"/>
		<path class="st2" d="M69.6,61.8c-1.4-1.4-2.1-3.1-2.1-5.1c0-2.1,0.7-3.8,2.1-5.2c1.4-1.4,3.1-2,5.1-2c1.6,0,2.9,0.4,4.2,1.2
			c1.2,0.8,2.1,2,2.5,3.4h-4.1c-0.5-1-1.4-1.5-2.6-1.5S72.7,53,72,53.7c-0.7,0.7-1,1.7-1,2.9s0.3,2.2,1,2.9c0.7,0.7,1.6,1.1,2.7,1.1
			c0.8,0,1.5-0.2,2-0.6c0.5-0.4,0.9-1,1-1.6h-4v-2.6h7.6v2.6c-0.3,1.3-1,2.5-2.1,3.6c-0.5,0.5-1.2,1-2,1.3s-1.7,0.5-2.6,0.5
			C72.7,63.9,71,63.2,69.6,61.8z"/>
		<path class="st2" d="M83.1,58.1v-8.4h3.4v8.4c0,0.8,0.2,1.5,0.6,1.9c0.4,0.5,1,0.7,1.8,0.7c0.8,0,1.4-0.2,1.8-0.7s0.6-1.1,0.6-1.9
			v-8.4h3.4v8.4c0,1.2-0.3,2.3-0.9,3.2c-0.6,0.9-1.3,1.6-2.2,2c-0.9,0.4-1.8,0.6-2.9,0.6c-1.6,0-3-0.5-4.1-1.5S83.1,59.9,83.1,58.1z
			"/>
		<path class="st2" d="M97.4,63.7v-14h3.4v14H97.4z"/>
		<path class="st2" d="M108.3,49.7c2.2,0,4.1,0.7,5.5,2c1.4,1.3,2.2,3,2.2,5.1s-0.7,3.8-2.2,5.1c-1.4,1.3-3.3,2-5.5,2h-4.9v-14
			H108.3z M106.7,61.1h1.5c1.3,0,2.3-0.4,3.1-1.2c0.7-0.8,1.1-1.9,1.1-3.2s-0.4-2.4-1.1-3.2c-0.7-0.8-1.8-1.2-3.1-1.2h-1.5V61.1z"/>
		<path class="st2" d="M126.1,49.7v2.6h-5.1v3h4.5v2.6h-4.5v3.3h5.1v2.6h-8.5V49.7H126.1z"/>
		<path class="st2" d="M133.2,52.3v-2.6h11.1v2.6h-3.8v11.4H137V52.3H133.2z"/>
		<path class="st2" d="M154.7,49.7h3.4v14h-3.4v-5.8h-5.4v5.8h-3.4v-14h3.4v5.6h5.4V49.7z"/>
		<path class="st2" d="M164.1,58.3v5.5h-3.4v-14h5.5c1.6,0,2.9,0.4,3.8,1.3s1.4,1.9,1.4,3c0,0.8-0.2,1.6-0.7,2.4
			c-0.5,0.8-1.3,1.3-2.4,1.6l3.4,5.7h-4l-3.2-5.5H164.1z M164.1,52.3v3.4h2.1c0.5,0,0.9-0.2,1.2-0.5c0.3-0.3,0.5-0.7,0.5-1.2
			s-0.2-0.9-0.5-1.2s-0.7-0.5-1.2-0.5H164.1z"/>
		<path class="st2" d="M174.8,61.8c-1.4-1.4-2.1-3.1-2.1-5.2c0-2.1,0.7-3.8,2.1-5.2c1.4-1.4,3.1-2,5.1-2c2,0,3.7,0.7,5.1,2
			s2.1,3.1,2.1,5.2c0,2.1-0.7,3.8-2.1,5.2c-1.4,1.4-3.1,2-5.1,2S176.2,63.2,174.8,61.8z M182.6,59.6c0.7-0.7,1-1.7,1-2.9
			s-0.3-2.2-1-2.9c-0.7-0.7-1.6-1.1-2.7-1.1c-1.1,0-2,0.4-2.7,1.1c-0.7,0.7-1,1.7-1,2.9s0.3,2.2,1,2.9c0.7,0.7,1.6,1.1,2.7,1.1
			C181.1,60.7,182,60.4,182.6,59.6z"/>
		<path class="st2" d="M188.8,58.1v-8.4h3.4v8.4c0,0.8,0.2,1.5,0.6,1.9c0.4,0.5,1,0.7,1.8,0.7s1.4-0.2,1.8-0.7s0.6-1.1,0.6-1.9v-8.4
			h3.4v8.4c0,1.2-0.3,2.3-0.9,3.2c-0.6,0.9-1.3,1.6-2.2,2c-0.9,0.4-1.8,0.6-2.9,0.6c-1.6,0-3-0.5-4.1-1.5S188.8,59.9,188.8,58.1z"/>
		<path class="st2" d="M204.3,61.8c-1.4-1.4-2.1-3.1-2.1-5.1c0-2.1,0.7-3.8,2.1-5.2c1.4-1.4,3.1-2,5.1-2c1.6,0,2.9,0.4,4.2,1.2
			c1.2,0.8,2.1,2,2.5,3.4H212c-0.5-1-1.4-1.5-2.6-1.5c-1.2,0-2.1,0.4-2.8,1.1c-0.7,0.7-1,1.7-1,2.9s0.3,2.2,1,2.9
			c0.7,0.7,1.6,1.1,2.7,1.1c0.8,0,1.5-0.2,2-0.6c0.5-0.4,0.9-1,1-1.6h-4v-2.6h7.6v2.6c-0.3,1.3-1,2.5-2.1,3.6c-0.5,0.5-1.2,1-2,1.3
			s-1.7,0.5-2.6,0.5C207.4,63.9,205.7,63.2,204.3,61.8z"/>
		<path class="st2" d="M226.7,49.7h3.4v14h-3.4v-5.8h-5.4v5.8h-3.4v-14h3.4v5.6h5.4V49.7z"/>
		<path class="st2" d="M241.6,58.3v5.5h-3.4v-14h5.5c1.6,0,2.9,0.4,3.8,1.3s1.4,1.9,1.4,3c0,0.8-0.2,1.6-0.7,2.4
			c-0.5,0.8-1.3,1.3-2.4,1.6l3.4,5.7h-4l-3.2-5.5H241.6z M241.6,52.3v3.4h2.1c0.5,0,0.9-0.2,1.2-0.5c0.3-0.3,0.5-0.7,0.5-1.2
			s-0.2-0.9-0.5-1.2s-0.7-0.5-1.2-0.5H241.6z"/>
		<path class="st2" d="M259.6,49.7v2.6h-5.1v3h4.5v2.6h-4.5v3.3h5.1v2.6h-8.5V49.7H259.6z"/>
		<path class="st2" d="M263.3,61.8c-1.4-1.4-2.1-3.1-2.1-5.1c0-2.1,0.7-3.8,2.1-5.2c1.4-1.4,3.1-2,5.1-2c1.6,0,2.9,0.4,4.2,1.2
			c1.2,0.8,2.1,2,2.5,3.4h-4.1c-0.5-1-1.4-1.5-2.6-1.5c-1.2,0-2.1,0.4-2.8,1.1c-0.7,0.7-1,1.7-1,2.9s0.3,2.2,1,2.9
			c0.7,0.7,1.6,1.1,2.7,1.1c0.8,0,1.5-0.2,2-0.6c0.5-0.4,0.9-1,1-1.6h-4v-2.6h7.6v2.6c-0.3,1.3-1,2.5-2.1,3.6c-0.5,0.5-1.2,1-2,1.3
			s-1.7,0.5-2.6,0.5C266.4,63.9,264.7,63.2,263.3,61.8z"/>
		<path class="st2" d="M276.8,58.1v-8.4h3.4v8.4c0,0.8,0.2,1.5,0.6,1.9c0.4,0.5,1,0.7,1.8,0.7s1.4-0.2,1.8-0.7s0.6-1.1,0.6-1.9v-8.4
			h3.4v8.4c0,1.2-0.3,2.3-0.9,3.2c-0.6,0.9-1.3,1.6-2.2,2c-0.9,0.4-1.8,0.6-2.9,0.6c-1.6,0-3-0.5-4.1-1.5S276.8,59.9,276.8,58.1z"/>
		<path class="st2" d="M291,49.7h3.4v11.4h4.3v2.6H291V49.7z"/>
		<path class="st2" d="M309.1,63.7l-0.8-2.4h-5l-0.8,2.4h-3.6l4.9-14.1h4.2l4.9,14.1H309.1z M304.1,58.8h3.3l-1.7-5L304.1,58.8z"/>
		<path class="st2" d="M313,52.3v-2.6h11.1v2.6h-3.8v11.4h-3.4V52.3H313z"/>
		<path class="st2" d="M326.9,61.8c-1.4-1.4-2.1-3.1-2.1-5.2c0-2.1,0.7-3.8,2.1-5.2c1.4-1.4,3.1-2,5.1-2c2,0,3.7,0.7,5.1,2
			s2.1,3.1,2.1,5.2c0,2.1-0.7,3.8-2.1,5.2c-1.4,1.4-3.1,2-5.1,2S328.3,63.2,326.9,61.8z M334.7,59.6c0.7-0.7,1-1.7,1-2.9
			s-0.3-2.2-1-2.9c-0.7-0.7-1.6-1.1-2.7-1.1c-1.1,0-2,0.4-2.7,1.1c-0.7,0.7-1,1.7-1,2.9s0.3,2.2,1,2.9c0.7,0.7,1.6,1.1,2.7,1.1
			C333.2,60.7,334.1,60.4,334.7,59.6z"/>
		<path class="st2" d="M344.4,58.3v5.5H341v-14h5.5c1.6,0,2.9,0.4,3.8,1.3s1.4,1.9,1.4,3c0,0.8-0.2,1.6-0.7,2.4
			c-0.5,0.8-1.3,1.3-2.4,1.6l3.4,5.7h-4l-3.2-5.5H344.4z M344.4,52.3v3.4h2.1c0.5,0,0.9-0.2,1.2-0.5c0.3-0.3,0.5-0.7,0.5-1.2
			s-0.2-0.9-0.5-1.2s-0.7-0.5-1.2-0.5H344.4z"/>
		<path class="st2" d="M360.9,63.7h-3.4v-4.5l-4.9-9.5h3.9l2.7,6.3l2.7-6.3h3.9l-4.9,9.5V63.7z"/>
		<path class="st2" d="M373.9,61.8c-1.4-1.4-2.1-3.1-2.1-5.1c0-2.1,0.7-3.8,2.1-5.2c1.4-1.4,3.1-2,5.1-2c1.6,0,2.9,0.4,4.2,1.2
			c1.2,0.8,2.1,2,2.5,3.4h-4.1c-0.5-1-1.4-1.5-2.6-1.5c-1.2,0-2.1,0.4-2.8,1.1c-0.7,0.7-1,1.7-1,2.9s0.3,2.2,1,2.9
			c0.7,0.7,1.6,1.1,2.8,1.1c1.2,0,2-0.5,2.6-1.5h4.1c-0.5,1.5-1.3,2.6-2.5,3.4c-1.2,0.8-2.6,1.2-4.2,1.2
			C377,63.9,375.3,63.2,373.9,61.8z"/>
		<path class="st2" d="M396.3,49.7h3.4v14h-3.4v-5.8h-5.4v5.8h-3.4v-14h3.4v5.6h5.4V49.7z"/>
		<path class="st2" d="M411.2,63.7l-0.8-2.4h-5l-0.8,2.4H401l4.9-14.1h4.2l4.9,14.1H411.2z M406.3,58.8h3.3l-1.7-5L406.3,58.8z"/>
		<path class="st2" d="M425.2,49.7h3.4v14.1h-3.4l-5.7-8.9v8.9h-3.4V49.7h3.4l5.7,8.9V49.7z"/>
		<path class="st2" d="M432.5,61.8c-1.4-1.4-2.1-3.1-2.1-5.1c0-2.1,0.7-3.8,2.1-5.2c1.4-1.4,3.1-2,5.1-2c1.6,0,2.9,0.4,4.2,1.2
			c1.2,0.8,2.1,2,2.5,3.4h-4.1c-0.5-1-1.4-1.5-2.6-1.5c-1.2,0-2.1,0.4-2.8,1.1c-0.7,0.7-1,1.7-1,2.9s0.3,2.2,1,2.9
			c0.7,0.7,1.6,1.1,2.7,1.1c0.8,0,1.5-0.2,2-0.6c0.5-0.4,0.9-1,1-1.6h-4v-2.6h7.6v2.6c-0.3,1.3-1,2.5-2.1,3.6c-0.5,0.5-1.2,1-2,1.3
			s-1.7,0.5-2.6,0.5C435.6,63.9,433.9,63.2,432.5,61.8z"/>
		<path class="st2" d="M454.5,49.7v2.6h-5.1v3h4.5v2.6h-4.5v3.3h5.1v2.6H446V49.7H454.5z"/>
		<path class="st2" d="M459.9,61.9c0,0.5-0.2,1-0.5,1.3c-0.4,0.4-0.8,0.5-1.3,0.5c-0.5,0-1-0.2-1.3-0.5c-0.4-0.4-0.5-0.8-0.5-1.3
			c0-0.5,0.2-1,0.5-1.3c0.4-0.4,0.8-0.5,1.3-0.5c0.5,0,1,0.2,1.3,0.5C459.8,60.9,459.9,61.3,459.9,61.9z"/>
	</g>
</g>
</svg>
