<?xml version="1.0" encoding="UTF-8"?>
<svg width="100px" height="26px" viewBox="0 0 100 26" version="1.1" xmlns="http://www.w3.org/2000/svg" xmlns:xlink="http://www.w3.org/1999/xlink">
    <!-- Generator: Sketch 51.3 (57544) - http://www.bohemiancoding.com/sketch -->
    <title>tradeweb</title>
    <desc>Created with Sketch.</desc>
    <defs></defs>
    <g id="Page-1" stroke="none" stroke-width="1" fill="none" fill-rule="evenodd">
        <g id="300x250v2-frame1" transform="translate(-15.000000, -15.000000)">
            <g id="tradeweb" transform="translate(15.000000, 15.000000)">
                <polygon id="Fill-1" fill="#003E7E" points="18.2680909 11.7019576 18.2680909 13.4641459 22.5726364 13.4641459 22.5726364 25.6789459 24.5562727 25.6789459 24.5562727 13.4641459 28.8614242 13.4641459 28.8614242 11.7019576"></polygon>
                <path d="M28.0087879,15.4665129 L29.7545455,15.4665129 L29.7545455,17.0482306 L29.7942424,17.0482306 C30.290303,15.9871247 31.3615152,15.2263953 32.4324242,15.2263953 C32.9884848,15.2263953 33.2660606,15.2860424 33.6627273,15.3667953 L33.6627273,17.0482306 C33.3251515,16.9081365 32.9487879,16.8680659 32.6312121,16.8680659 C30.9648485,16.8680659 29.8736364,18.4699718 29.8736364,21.0332659 L29.8736364,25.6790071 L28.0087879,25.6790071 L28.0087879,15.4665129 Z" id="Fill-2" fill="#003E7E"></path>
                <path d="M35.0113333,16.1870188 C35.9434545,15.6263365 37.0543636,15.2265482 38.3440606,15.2265482 C41.2404242,15.2265482 42.4104242,16.6681718 42.4104242,19.4513953 L42.4104242,23.6768541 C42.4104242,24.8373718 42.4507273,25.3784776 42.4904242,25.67916 L40.7440606,25.67916 L40.7440606,24.3571365 L40.7043636,24.3571365 C40.2686061,24.9780776 39.2761818,25.9192776 37.5707273,25.9192776 C35.388,25.9192776 33.8607273,24.9585012 33.8607273,22.7353482 C33.8607273,20.1720541 36.638,19.3712541 38.5625455,19.3712541 C39.2961818,19.3712541 39.8119394,19.3712541 40.5461818,19.4113247 C40.5461818,17.6491365 39.9113333,16.7477012 38.0461818,16.7477012 C36.9949697,16.7477012 35.8646667,17.1484071 35.1101212,17.7889247 L35.0113333,16.1870188 Z M40.5461818,20.8128776 C40.1495152,20.8128776 39.7522424,20.7728071 39.3552727,20.7728071 C38.3440606,20.7728071 35.8446667,20.9333953 35.8446667,22.7353482 C35.8446667,23.8166424 36.8761818,24.3978188 37.7286061,24.3978188 C39.5740606,24.3978188 40.5461818,23.2363835 40.5461818,21.7137012 L40.5461818,20.8128776 Z" id="Fill-4" fill="#003E7E"></path>
                <path d="M51.5360909,24.2373224 L51.4963939,24.2373224 C51.0000303,24.9980518 49.8503333,25.9193694 48.0448788,25.9193694 C44.9897273,25.9193694 43.7000303,23.1762165 43.7000303,20.3926871 C43.7000303,17.6489224 45.1288182,15.2263341 48.0642727,15.2263341 C49.8300303,15.2263341 50.8421515,15.9268047 51.417,16.8683106 L51.456697,16.8683106 L51.456697,10.6607341 L53.3215455,10.6607341 L53.3215455,25.6789459 L51.5360909,25.6789459 L51.5360909,24.2373224 Z M48.4809394,24.3972988 C50.5836667,24.3972988 51.456697,22.2943576 51.456697,20.5927341 C51.456697,18.6901459 50.4848788,16.7484047 48.4615455,16.7484047 C46.4382121,16.7484047 45.6439697,18.6705694 45.6836667,20.5330871 C45.6439697,22.1343812 46.4779091,24.3972988 48.4809394,24.3972988 Z" id="Fill-6" fill="#003E7E"></path>
                <path d="M63.061303,25.2583271 C62.3470606,25.5189388 61.5340303,25.9193388 59.8676667,25.9193388 C56.2767576,25.9193388 54.6300909,23.7160682 54.6300909,20.3920447 C54.6300909,17.3687035 56.5146364,15.2263035 59.371303,15.2263035 C62.7437273,15.2263035 63.8352424,17.7088447 63.8352424,20.9927976 L56.6143333,20.9927976 C56.6143333,23.0155976 58.181303,24.3975741 59.9470606,24.3975741 C61.1767576,24.3975741 62.6052424,23.7561388 63.061303,23.3762329 L63.061303,25.2583271 Z M61.851303,19.5918565 C61.851303,18.0291035 60.9388788,16.7483741 59.3316061,16.7483741 C57.5067576,16.7483741 56.7528182,18.2695271 56.6143333,19.5918565 L61.851303,19.5918565 Z" id="Fill-8" fill="#003E7E"></path>
                <polygon id="Fill-10" fill="#003E7E" points="76.5905455 25.6789153 74.4278182 25.6789153 71.8102424 17.1083976 71.7699394 17.1083976 69.2108485 25.6789153 67.0493333 25.6789153 63.7950909 15.4667271 65.8387273 15.4667271 68.1602424 23.9161153 68.1999394 23.9161153 70.7784242 15.4667271 72.9802424 15.4667271 75.5193333 23.9161153 75.5593333 23.9161153 78.0190303 15.4667271 79.8438788 15.4667271"></polygon>
                <path d="M88.2350303,25.2583271 C87.5210909,25.5189388 86.7080606,25.9193388 85.041697,25.9193388 C81.4504848,25.9193388 79.8047273,23.7160682 79.8047273,20.3920447 C79.8047273,17.3687035 81.6886667,15.2263035 84.5453333,15.2263035 C87.9177576,15.2263035 89.0092727,17.7088447 89.0092727,20.9927976 L81.7883636,20.9927976 C81.7883636,23.0155976 83.3550303,24.3975741 85.1210909,24.3975741 C86.3507879,24.3975741 87.7789697,23.7561388 88.2350303,23.3762329 L88.2350303,25.2583271 Z M87.0253333,19.5918565 C87.0253333,18.0291035 86.1129091,16.7483741 84.5056364,16.7483741 C82.6807879,16.7483741 81.9268485,18.2695271 81.7883636,19.5918565 L87.0253333,19.5918565 Z" id="Fill-12" fill="#003E7E"></path>
                <path d="M90.3180606,10.66052 L92.1826061,10.66052 L92.1826061,16.8680965 L92.222303,16.8680965 C92.7980606,15.9272024 93.8092727,15.22612 95.5753333,15.22612 C98.5110909,15.22612 99.9395758,17.64932 99.9395758,20.3921671 C99.9395758,23.1955788 98.6495758,25.9191553 95.5947273,25.9191553 C93.7898788,25.9191553 92.6392727,24.9978376 92.1429091,24.2371082 L92.1035152,24.2371082 L92.1035152,25.6793435 L90.3180606,25.6793435 L90.3180606,10.66052 Z M95.1783636,16.7478847 C93.1550303,16.7478847 92.1826061,18.6905435 92.1826061,20.59252 C92.1826061,22.2947553 93.0556364,24.3976965 95.1583636,24.3976965 C97.162303,24.3976965 97.9953333,22.1341671 97.9556364,20.5325671 C97.9953333,18.6905435 97.202,16.7478847 95.1783636,16.7478847 Z" id="Fill-14" fill="#003E7E"></path>
                <path d="M6.89624242,4.82306118 C6.96169697,5.38619059 6.56169697,5.89548471 6.00472727,5.96155529 C5.44715152,6.02762588 4.942,5.62477882 4.87715152,5.06134353 C4.81169697,4.49882588 5.21109091,3.98892 5.76836364,3.92376706 C6.32563636,3.85739059 6.83078788,4.26054353 6.89624242,4.82306118" id="Fill-17" fill="#00B6DE"></path>
                <path d="M7.58384848,11.3087153 C7.66172727,11.9813506 7.18445455,12.5900565 6.51809091,12.6689741 C5.85142424,12.7478918 5.24809091,12.2667388 5.16990909,11.5934918 C5.09172727,10.9208565 5.56930303,10.3118447 6.2359697,10.2329271 C6.90233333,10.1543153 7.50566667,10.63608 7.58384848,11.3087153" id="Fill-19" fill="#00B6DE"></path>
                <path d="M11.1308182,7.61500235 C11.1308182,8.30232 10.579,8.85902588 9.89839394,8.85902588 C9.21809091,8.85902588 8.6659697,8.30232 8.6659697,7.61500235 C8.6659697,6.92799059 9.21809091,6.37159059 9.89839394,6.37159059 C10.579,6.37159059 11.1308182,6.92799059 11.1308182,7.61500235" id="Fill-21" fill="#00B6DE"></path>
                <path d="M2.36927273,9.08079059 C2.36927273,9.45886118 2.0650303,9.76596706 1.69048485,9.76596706 C1.31563636,9.76596706 1.01139394,9.45886118 1.01139394,9.08079059 C1.01139394,8.70180235 1.31563636,8.39530824 1.69048485,8.39530824 C2.0650303,8.39530824 2.36927273,8.70180235 2.36927273,9.08079059" id="Fill-23" fill="#00B6DE"></path>
                <path d="M9.40718182,4.32511529 C9.8559697,4.85215059 9.79687879,5.64683294 9.27475758,6.10076235 C8.75293939,6.55377412 7.96566667,6.49351529 7.5159697,5.96648 C7.06687879,5.43944471 7.12687879,4.64476235 7.64869697,4.19144471 C8.17021212,3.73843294 8.95809091,3.79808 9.40718182,4.32511529" id="Fill-25" fill="#00B6DE"></path>
                <path d="M4.84427273,9.72959765 C5.18063636,10.1244918 5.13639394,10.7200447 4.74548485,11.0601859 C4.35366667,11.3994094 3.76366667,11.3550565 3.42790909,10.9595506 C3.09093939,10.5646565 3.13578788,9.96910353 3.52609091,9.62988 C3.91790909,9.29035059 4.50790909,9.33470353 4.84427273,9.72959765" id="Fill-27" fill="#00B6DE"></path>
                <path d="M9.97124242,11.2283906 C9.50578788,11.7254494 8.72942424,11.7477788 8.23669697,11.2779435 C7.74427273,10.8081082 7.72306061,10.0244376 8.18851515,9.52737882 C8.65366667,9.03032 9.43033333,9.00799059 9.92275758,9.47843765 C10.4145758,9.94766118 10.436697,10.7319435 9.97124242,11.2283906" id="Fill-29" fill="#00B6DE"></path>
                <path d="M4.69218182,6.80383294 C4.34127273,7.17823294 3.75642424,7.19475059 3.38551515,6.84084471 C3.01460606,6.48663294 2.99824242,5.89689176 3.34824242,5.52249176 C3.69915152,5.14717412 4.284,5.13065647 4.65490909,5.48486824 C5.02672727,5.83877412 5.04309091,6.42943294 4.69218182,6.80383294" id="Fill-31" fill="#00B6DE"></path>
                <path d="M12.3025455,12.6238259 C11.9134545,13.03952 11.2628485,13.0578729 10.8504242,12.66512 C10.4386061,12.2717553 10.4201212,11.6150259 10.8101212,11.1993318 C11.1998182,10.78272 11.8489091,10.7643671 12.2616364,11.1580376 C12.6740606,11.5514024 12.6922424,12.2081318 12.3025455,12.6238259" id="Fill-33" fill="#00B6DE"></path>
                <path d="M2.70042424,5.7824 C2.44981818,6.04943529 2.03224242,6.06167059 1.76769697,5.80901176 C1.50254545,5.55604706 1.49133333,5.13454118 1.74133333,4.86781176 C1.99193939,4.60016471 2.40951515,4.58792941 2.67406061,4.84028235 C2.93921212,5.09355294 2.95042424,5.51536471 2.70042424,5.7824" id="Fill-35" fill="#00B6DE"></path>
                <path d="M14.2433939,14.2367129 C13.8912727,14.61356 13.3030909,14.6297718 12.9303636,14.2743365 C12.5576364,13.9189012 12.5406667,13.3254894 12.8930909,12.9489482 C13.2458182,12.5727129 13.8333939,12.5558894 14.2061212,12.9119365 C14.5791515,13.2673718 14.5961212,13.8607835 14.2433939,14.2367129" id="Fill-37" fill="#00B6DE"></path>
                <path d="M15.9011818,15.8273624 C15.6020909,16.1463976 15.102697,16.16108 14.7857273,15.8585624 C14.4690606,15.5557388 14.4551212,15.0531741 14.7542121,14.7326094 C15.0536061,14.4135741 15.553,14.3995035 15.8696667,14.7014094 C16.1857273,15.0036212 16.2002727,15.5074094 15.9011818,15.8273624" id="Fill-39" fill="#00B6DE"></path>
                <path d="M17.1578485,17.2716471 C16.9242121,17.5215529 16.5357273,17.5325647 16.2887576,17.2970353 C16.0417879,17.0618118 16.0305758,16.6684471 16.2642121,16.4200706 C16.4978485,16.1704706 16.8863333,16.1591529 17.133303,16.3952941 C17.3793636,16.6302118 17.3908788,17.0226588 17.1578485,17.2716471" id="Fill-41" fill="#00B6DE"></path>
                <path d="M8.10924242,8.00766353 C8.10924242,8.95039294 7.35166667,9.71509882 6.41742424,9.71509882 C5.48378788,9.71509882 4.72590909,8.95039294 4.72590909,8.00766353 C4.72590909,7.06493412 5.48378788,6.30022824 6.41742424,6.30022824 C7.35166667,6.30022824 8.10924242,7.06493412 8.10924242,8.00766353" id="Fill-43" fill="#003E7E"></path>
                <path d="M19.8832121,8.17657176 C19.6501818,8.42586588 19.2610909,8.43779529 19.0141212,8.20196 C18.7671515,7.96673647 18.7565455,7.57398353 18.9895758,7.32407765 C19.2232121,7.07570118 19.611697,7.06407765 19.8586667,7.29991294 C20.1047273,7.53513647 20.1162424,7.92819529 19.8832121,8.17657176" id="Fill-45" fill="#00B6DE"></path>
                <path d="M18.04,8.03066588 C17.740303,8.35031294 17.2415152,8.36438353 16.9245455,8.06247765 C16.6078788,7.75996 16.5939394,7.25647765 16.8930303,6.93652471 C17.1924242,6.61748941 17.6912121,6.60280706 18.0084848,6.90532471 C18.3245455,7.20692471 18.3384848,7.71101882 18.04,8.03066588" id="Fill-47" fill="#00B6DE"></path>
                <path d="M15.8946667,7.91446118 C15.5419394,8.29069647 14.9543636,8.30721412 14.5816364,7.95208471 C14.2089091,7.59573176 14.1916364,7.00293176 14.5443636,6.62577882 C14.8970909,6.25015529 15.4846667,6.23302588 15.8573939,6.58907294 C16.2304242,6.94450824 16.2473939,7.53822588 15.8946667,7.91446118" id="Fill-49" fill="#00B6DE"></path>
                <path d="M13.4587576,7.96074118 C13.0687576,8.37704706 12.4190606,8.39478824 12.0066364,8.00203529 C11.5945152,7.60867059 11.5763333,6.95255294 11.9660303,6.53624706 C12.3554242,6.12055294 13.0051212,6.10128235 13.4178485,6.49495294 C13.8302727,6.88831765 13.8484545,7.54504706 13.4587576,7.96074118" id="Fill-51" fill="#00B6DE"></path>
                <path d="M9.60769697,20.2545812 C9.37466667,20.5041812 8.98557576,20.5151929 8.73860606,20.2799694 C8.49163636,20.04444 8.48042424,19.6510753 8.71406061,19.4026988 C8.94709091,19.1534047 9.33618182,19.1420871 9.58315152,19.3779224 C9.82921212,19.6131459 9.84072727,20.0055929 9.60769697,20.2545812" id="Fill-53" fill="#00B6DE"></path>
                <path d="M8.95278788,18.8088282 C8.65309091,19.1284753 8.15430303,19.1425459 7.83733333,18.84064 C7.52066667,18.5378165 7.5070303,18.03464 7.80612121,17.7146871 C8.10521212,17.3956518 8.60460606,17.3809694 8.92127273,17.6828753 C9.23733333,17.9850871 9.25187879,18.4888753 8.95278788,18.8088282" id="Fill-55" fill="#00B6DE"></path>
                <path d="M8.31018182,16.9786118 C7.95745455,17.3548471 7.36987879,17.3722824 6.99715152,17.0162353 C6.62442424,16.6608 6.60715152,16.0673882 6.95987879,15.6902353 C7.31260606,15.3146118 7.90078788,15.2974824 8.27351515,15.6532235 C8.64563636,16.0092706 8.66290909,16.6026824 8.31018182,16.9786118" id="Fill-57" fill="#00B6DE"></path>
                <path d="M7.68075758,14.7621576 C7.29075758,15.1784635 6.64106061,15.1965106 6.22863636,14.8034518 C5.81590909,14.4100871 5.79833333,13.7539694 6.18742424,13.3382753 C6.57742424,12.9210518 7.22712121,12.9033106 7.63984848,13.2963694 C8.05166667,13.6897341 8.07045455,14.3464635 7.68075758,14.7621576" id="Fill-59" fill="#00B6DE"></path>
                <path d="M11.1198788,4.12736235 C10.7426061,4.52990353 10.1141212,4.54764471 9.71472727,4.16743294 C9.31563636,3.78660941 9.29866667,3.15159765 9.6750303,2.74875059 C10.0526061,2.34620941 10.6807879,2.32846824 11.0801818,2.70929176 C11.4795758,3.08919765 11.4971515,3.72512706 11.1198788,4.12736235" id="Fill-61" fill="#00B6DE"></path>
                <path d="M12.8541515,2.74327529 C12.5329394,3.08586353 11.9968788,3.10176941 11.6568788,2.77753412 C11.3174848,2.45268706 11.3017273,1.91188706 11.6229394,1.56868706 C11.9447576,1.22609882 12.4808182,1.21049882 12.8202121,1.53473412 C13.1602121,1.85896941 13.1753636,2.40007529 12.8541515,2.74327529" id="Fill-63" fill="#00B6DE"></path>
                <path d="M14.4083939,1.60845176 C14.1653636,1.86784 13.7596061,1.88007529 13.5026364,1.63445176 C13.2459697,1.38852235 13.2344545,0.979863529 13.4768788,0.721087059 C13.7202121,0.461698824 14.1256667,0.449463529 14.3826364,0.695087059 C14.6396061,0.940404706 14.6508182,1.34906353 14.4083939,1.60845176" id="Fill-65" fill="#00B6DE"></path>
                <path d="M7.69378788,1.12396471 C7.44318182,1.391 7.02560606,1.40323529 6.76045455,1.15057647 C6.49590909,0.897611765 6.48409091,0.476105882 6.73469697,0.208458824 C6.98469697,-0.0588823529 7.40227273,-0.0705058824 7.66742424,0.181847059 C7.93257576,0.435117647 7.94378788,0.856317647 7.69378788,1.12396471" id="Fill-67" fill="#00B6DE"></path>
                <path d="M7.10087879,3.15655294 C6.78087879,3.49791765 6.24754545,3.51321176 5.90875758,3.19081176 C5.57057576,2.86810588 5.5560303,2.32883529 5.87542424,1.98747059 C6.19512121,1.64610588 6.72845455,1.63081176 7.06754545,1.95382353 C7.40542424,2.27622353 7.42087879,2.81518824 7.10087879,3.15655294" id="Fill-69" fill="#00B6DE"></path>
                <path d="M0.789757576,10.2769741 C0.615818182,10.4614212 0.326121212,10.4702918 0.143090909,10.2947153 C-0.0402424242,10.1200565 -0.0484242424,9.82763294 0.124606061,9.64257412 C0.298545455,9.45751529 0.588242424,9.44925647 0.771272727,9.62422118 C0.954,9.79918588 0.962787879,10.0913035 0.789757576,10.2769741" id="Fill-71" fill="#00B6DE"></path>
                <path d="M2.68784848,16.2834941 C2.51330303,16.4682471 2.22360606,16.4774235 2.04087879,16.3021529 C1.85784848,16.1271882 1.84875758,15.8347647 2.02269697,15.6490941 C2.19663636,15.4640353 2.48572727,15.4566941 2.66906061,15.6313529 C2.85209091,15.8057059 2.86087879,16.0987412 2.68784848,16.2834941" id="Fill-73" fill="#00B6DE"></path>
                <path d="M3.12063636,14.7824682 C2.88760606,15.0320682 2.49821212,15.04308 2.25154545,14.8078565 C2.00457576,14.5723271 1.9939697,14.1789624 2.227,13.9305859 C2.46063636,13.6812918 2.84912121,13.6705859 3.09609091,13.9058094 C3.34275758,14.1416447 3.35427273,14.5340918 3.12063636,14.7824682" id="Fill-75" fill="#00B6DE"></path>
                <path d="M3.81742424,12.9900282 C3.51833333,13.3096753 3.01893939,13.3237459 2.7019697,13.02184 C2.38530303,12.7193224 2.37166667,12.21584 2.67045455,11.8958871 C2.96984848,11.5768518 3.46924242,11.5624753 3.78590909,11.8649929 C4.1019697,12.1668988 4.11651515,12.6703812 3.81742424,12.9900282" id="Fill-77" fill="#00B6DE"></path>
                <path d="M4.12621212,8.9102 C3.77409091,9.28643529 3.18590909,9.30325882 2.81318182,8.94782353 C2.44045455,8.59177647 2.42378788,7.99867059 2.77590909,7.62182353 C3.12863636,7.2462 3.71681818,7.22876471 4.08954545,7.58481176 C4.46227273,7.94024706 4.47893939,8.53396471 4.12621212,8.9102" id="Fill-79" fill="#00B6DE"></path>
            </g>
        </g>
    </g>
</svg>