<?xml version="1.0" encoding="utf-8"?>
<!-- Generator: Adobe Illustrator 23.0.1, SVG Export Plug-In . SVG Version: 6.00 Build 0)  -->
<svg version="1.1" id="Layer_1" xmlns="http://www.w3.org/2000/svg" xmlns:xlink="http://www.w3.org/1999/xlink" x="0px" y="0px"
	 width="78.7px" height="47.6px" viewBox="0 0 78.7 47.6" style="enable-background:new 0 0 78.7 47.6;" xml:space="preserve">
<style type="text/css">
	.st0{fill:#003E7E;}
</style>
<g>
	<path class="st0" d="M0,0.1h2.3L4,3.6l1.6-3.5h2.3L5,5.8v2.8H2.9V5.8L0,0.1z"/>
	<path class="st0" d="M12.7,8.6c-2.4,0-4.3-1.8-4.3-4.3c0-2.5,1.9-4.3,4.3-4.3C15.1,0,17,1.8,17,4.3C17,6.8,15.1,8.6,12.7,8.6z
		 M12.7,6.8c1.3,0,2.2-1,2.2-2.4c0-1.5-0.9-2.4-2.2-2.4c-1.4,0-2.2,0.9-2.2,2.4C10.5,5.8,11.3,6.8,12.7,6.8z"/>
	<path class="st0" d="M18.1,0.1h2.1v5c0,1,0.5,1.6,1.5,1.6s1.5-0.6,1.5-1.6v-5h2.1v5c0,2.3-1.6,3.5-3.6,3.5c-2,0-3.5-1.2-3.5-3.5
		V0.1z"/>
	<path class="st0" d="M30,0.1c2.1,0,3.1,1.2,3.1,2.7c0,1.1-0.6,2.1-1.9,2.4l1.9,3.3h-2.3l-1.8-3.2h-0.5v3.2h-2.1V0.1H30z M29.9,1.8
		h-1.3v2.1h1.3c0.8,0,1.1-0.4,1.1-1.1C31.1,2.2,30.7,1.8,29.9,1.8z"/>
	<path class="st0" d="M44.8,2.8h-2.3c-0.3-0.6-0.9-0.9-1.7-0.9c-1.3,0-2.2,0.9-2.2,2.4c0,1.6,0.9,2.5,2.4,2.5c1,0,1.7-0.5,2-1.5
		h-2.6V3.8H45v1.9c-0.4,1.5-1.8,2.9-4.1,2.9c-2.5,0-4.3-1.8-4.3-4.3S38.4,0,40.9,0C42.9,0,44.4,1.1,44.8,2.8z"/>
	<path class="st0" d="M46.1,0.1h2.1v5c0,1,0.5,1.6,1.5,1.6c1,0,1.5-0.6,1.5-1.6v-5h2.1v5c0,2.3-1.6,3.5-3.6,3.5
		c-2,0-3.5-1.2-3.5-3.5V0.1z"/>
	<path class="st0" d="M54.6,0.1h2.1v8.4h-2.1V0.1z"/>
	<path class="st0" d="M65.7,4.3c0,2.5-1.7,4.2-4.4,4.2h-3.2V0.1h3.2C64,0.1,65.7,1.8,65.7,4.3z M61.1,6.8c1.5,0,2.5-0.9,2.5-2.4
		c0-1.5-0.9-2.5-2.5-2.5h-1v4.9H61.1z"/>
	<path class="st0" d="M72,1.8h-3.1v1.7h2.7V5h-2.7v1.8H72v1.6h-5.2V0.1H72V1.8z"/>
</g>
<g>
	<path class="st0" d="M0.2,13.1h6.5v1.6H4.5v6.8H2.4v-6.8H0.2V13.1z"/>
	<path class="st0" d="M13,18.1H9.8v3.5H7.8v-8.4h2.1v3.3H13v-3.3H15v8.4H13V18.1z"/>
	<path class="st0" d="M20,13.1c2.1,0,3.1,1.2,3.1,2.7c0,1.1-0.6,2.1-1.9,2.4l1.9,3.3h-2.3l-1.8-3.2h-0.5v3.2h-2.1v-8.4H20z
		 M19.8,14.8h-1.3v2.1h1.3c0.8,0,1.1-0.4,1.1-1.1C21,15.2,20.6,14.8,19.8,14.8z"/>
	<path class="st0" d="M28.3,21.6c-2.4,0-4.3-1.8-4.3-4.3c0-2.5,1.9-4.3,4.3-4.3c2.4,0,4.3,1.8,4.3,4.3
		C32.6,19.8,30.7,21.6,28.3,21.6z M28.3,19.8c1.3,0,2.2-1,2.2-2.4c0-1.5-0.9-2.4-2.2-2.4c-1.4,0-2.2,0.9-2.2,2.4
		C26.1,18.8,27,19.8,28.3,19.8z"/>
	<path class="st0" d="M33.7,13.1h2.1v5c0,1,0.5,1.6,1.5,1.6s1.5-0.6,1.5-1.6v-5h2.1v5c0,2.3-1.6,3.5-3.6,3.5c-2,0-3.5-1.2-3.5-3.5
		V13.1z"/>
	<path class="st0" d="M50.1,15.8h-2.3c-0.3-0.6-0.9-0.9-1.7-0.9c-1.3,0-2.2,0.9-2.2,2.4c0,1.6,0.9,2.5,2.4,2.5c1,0,1.7-0.5,2-1.5
		h-2.6v-1.5h4.5v1.9c-0.4,1.5-1.8,2.9-4.1,2.9c-2.5,0-4.3-1.8-4.3-4.3s1.8-4.3,4.3-4.3C48.2,13,49.7,14.1,50.1,15.8z"/>
	<path class="st0" d="M56.6,18.1h-3.2v3.5h-2.1v-8.4h2.1v3.3h3.2v-3.3h2.1v8.4h-2.1V18.1z"/>
</g>
<g>
	<path class="st0" d="M4.1,26.1c2.1,0,3.1,1.2,3.1,2.7c0,1.1-0.6,2.1-1.9,2.4l1.9,3.3H5l-1.8-3.2H2.7v3.2H0.7v-8.4H4.1z M4,27.8H2.7
		v2.1H4c0.8,0,1.1-0.4,1.1-1.1C5.1,28.2,4.7,27.8,4,27.8z"/>
	<path class="st0" d="M13.6,27.8h-3.1v1.7h2.7V31h-2.7v1.8h3.1v1.6H8.5v-8.4h5.2V27.8z"/>
	<path class="st0" d="M22.8,28.8h-2.3c-0.3-0.6-0.9-0.9-1.7-0.9c-1.3,0-2.2,0.9-2.2,2.4c0,1.6,0.9,2.5,2.4,2.5c1,0,1.7-0.5,2-1.5
		h-2.6v-1.5H23v1.9c-0.4,1.5-1.8,2.9-4.1,2.9c-2.5,0-4.3-1.8-4.3-4.3s1.8-4.3,4.3-4.3C20.9,26,22.4,27.1,22.8,28.8z"/>
	<path class="st0" d="M24.1,26.1h2.1v5c0,1,0.5,1.6,1.5,1.6s1.5-0.6,1.5-1.6v-5h2.1v5c0,2.3-1.6,3.5-3.6,3.5c-2,0-3.5-1.2-3.5-3.5
		V26.1z"/>
	<path class="st0" d="M34.6,26.1V33h2.7v1.6h-4.7v-8.4H34.6z"/>
	<path class="st0" d="M43.5,33.1h-3.1l-0.5,1.5h-2.1l3-8.4h2.4l3,8.4H44L43.5,33.1z M42,28.4l-1,3.1H43L42,28.4z"/>
	<path class="st0" d="M46.7,26.1h6.5v1.6H51v6.8h-2.1v-6.8h-2.2V26.1z"/>
	<path class="st0" d="M58.2,34.6c-2.4,0-4.3-1.8-4.3-4.3c0-2.5,1.9-4.3,4.3-4.3c2.4,0,4.3,1.8,4.3,4.3
		C62.5,32.8,60.6,34.6,58.2,34.6z M58.2,32.8c1.3,0,2.2-1,2.2-2.4c0-1.5-0.9-2.4-2.2-2.4c-1.4,0-2.2,0.9-2.2,2.4
		C56,31.8,56.9,32.8,58.2,32.8z"/>
	<path class="st0" d="M67.1,26.1c2.1,0,3.1,1.2,3.1,2.7c0,1.1-0.6,2.1-1.9,2.4l1.9,3.3H68l-1.8-3.2h-0.5v3.2h-2.1v-8.4H67.1z
		 M67,27.8h-1.3v2.1H67c0.8,0,1.1-0.4,1.1-1.1C68.1,28.2,67.8,27.8,67,27.8z"/>
	<path class="st0" d="M70.8,26.1h2.3l1.6,3.5l1.6-3.5h2.3l-2.9,5.6v2.8h-2.1v-2.8L70.8,26.1z"/>
</g>
<g>
	<path class="st0" d="M4.5,39c2,0,3.5,1.1,4,3H6.3c-0.3-0.7-1-1.1-1.8-1.1c-1.3,0-2.1,0.9-2.1,2.4s0.9,2.4,2.1,2.4
		c0.8,0,1.4-0.4,1.8-1.1h2.3c-0.5,1.8-2,2.9-4,2.9c-2.5,0-4.2-1.8-4.2-4.3S2.1,39,4.5,39z"/>
	<path class="st0" d="M15,44.1h-3.2v3.5H9.8v-8.4h2.1v3.3H15v-3.3h2.1v8.4H15V44.1z"/>
	<path class="st0" d="M23.8,46.1h-3.1l-0.5,1.5H18l3-8.4h2.4l3,8.4h-2.2L23.8,46.1z M22.2,41.4l-1,3.1h2.1L22.2,41.4z"/>
	<path class="st0" d="M35,39.1v8.4h-2.1l-3.4-5.2v5.2h-2.1v-8.4h2.1l3.4,5.2v-5.2H35z"/>
	<path class="st0" d="M44.3,41.8H42c-0.3-0.6-0.9-0.9-1.7-0.9c-1.3,0-2.2,0.9-2.2,2.4c0,1.6,0.9,2.5,2.4,2.5c1,0,1.7-0.5,2-1.5H40
		v-1.5h4.5v1.9c-0.4,1.5-1.8,2.9-4.1,2.9c-2.5,0-4.3-1.8-4.3-4.3s1.8-4.3,4.3-4.3C42.4,39,43.9,40.1,44.3,41.8z"/>
	<path class="st0" d="M50.7,40.8h-3.1v1.7h2.7V44h-2.7v1.8h3.1v1.6h-5.2v-8.4h5.2V40.8z"/>
	<path class="st0" d="M53,47.6c-0.7,0-1.2-0.5-1.2-1.1c0-0.6,0.5-1.1,1.2-1.1c0.7,0,1.2,0.5,1.2,1.1C54.2,47.1,53.8,47.6,53,47.6z"
		/>
</g>
</svg>
